%YAML 1.1
%TAG !u! tag:unity3d.com,2011:
--- !u!1045 &1
EditorBuildSettings:
  m_ObjectHideFlags: 0
  serializedVersion: 2
  m_Scenes:
  - enabled: 1
    path: Assets/Samples/in3D.AvatarsSDK/1.0.2/gltFast URP/SimpleGltFastURP.unity
    guid: 1c58b772197704e30bad0033a5803fc9
  - enabled: 1
    path: Assets/Samples/in3D.AvatarsSDK/1.0.2/gltFast URP/QRAuthorization.unity
    guid: e65dbc588036a4cda92fb8543fc37f0d
  m_configObjects: {}
