%YAML 1.1
%TAG !u! tag:unity3d.com,2011:
--- !u!114 &11400000
MonoBehaviour:
  m_ObjectHideFlags: 0
  m_CorrespondingSourceObject: {fileID: 0}
  m_PrefabInstance: {fileID: 0}
  m_PrefabAsset: {fileID: 0}
  m_GameObject: {fileID: 0}
  m_Enabled: 1
  m_EditorHideFlags: 0
  m_Script: {fileID: 11500000, guid: 7ca6bccbd496042e394ca61a6795aa77, type: 3}
  m_Name: in3dAvatarConfig_Arnold
  m_EditorClassIdentifier: 
  id: 48f5081b-a2b4-430c-a8db-57552422f62c
  format: 3
  scan_id: 
  vendor_id: 
